{
    "data": [{
            "type": "fn_attack_events_v1",
            "id": 1,
            "attributes": {
                "userfirstname": "Regan",
                "	": "Aguilar",
                "useremailaddress": "regan.aguilar@pgn.com",
                "useractiveflag": true,
                "userdeleteddate": null,
                "senttimestamp": "2023-03-30T19:45:15",
                "eventtimestamp": "2023-03-30T19:56:27",
                "eventtype": "Email Click",
                "campaignname": "March All Employee Susceptible Users 2nd Click - Test4",
                "autoenrollment": false,
                "campaignstartdate": "2023-03-30T15:45:13",
                "campaignenddate": "2023-04-06T15:45:15",
                "campaigntype": "Drive By",
                "campaignstatus": "Sent",
                "templatename": "Amazon Transaction Alert - Simple",
                "templatesubject": "Transaction alert amazon",
                "assessmentisarchived": false,
                "usertags": null,
                "sso_id": "E08810"
            }
        }, {
            "type": "fn_attack_events_v1",
            "id": 2,
            "attributes": {
                "userfirstname": "Regan",
                "userlastname": "Aguilar",
                "useremailaddress": "regan.aguilar@pgn.com",
                "useractiveflag": true,
                "userdeleteddate": null,
                "senttimestamp": "2023-03-30T19:45:15",
                "eventtimestamp": "2023-03-30T19:56:25",
                "eventtype": "Email Click",
                "campaignname": "March All Employee Susceptible Users 2nd Click - Test4",
                "autoenrollment": false,
                "campaignstartdate": "2023-03-30T15:45:13",
                "campaignenddate": "2023-04-06T15:45:15",
                "campaigntype": "Drive By",
                "campaignstatus": "Sent",
                "templatename": "Amazon Transaction Alert - Simple",
                "templatesubject": "Transaction alert amazon",
                "assessmentisarchived": false,
                "usertags": null,
                "sso_id": "E08810"
            }
        }, {
            "type": "fn_attack_events_v1",
            "id": 3,
            "attributes": {
                "userfirstname": "Regan",
                "userlastname": "Aguilar",
                "useremailaddress": "regan.aguilar@pgn.com",
                "useractiveflag": true,
                "userdeleteddate": null,
                "senttimestamp": "2023-03-30T19:45:15",
                "eventtimestamp": "2023-03-30T19:56:25",
                "eventtype": "Email View",
                "campaignname": "March All Employee Susceptible Users 2nd Click - Test4",
                "autoenrollment": false,
                "campaignstartdate": "2023-03-30T15:45:13",
                "campaignenddate": "2023-04-06T15:45:15",
                "campaigntype": "Drive By",
                "campaignstatus": "Sent",
                "templatename": "Amazon Transaction Alert - Simple",
                "templatesubject": "Transaction alert amazon",
                "assessmentisarchived": false,
                "usertags": null,
                "sso_id": "E08810"
            }
        }, {
            "type": "fn_attack_events_v1",
            "id": 4,
            "attributes": {
                "userfirstname": "Regan",
                "userlastname": "Aguilar",
                "useremailaddress": "regan.aguilar@pgn.com",
                "useractiveflag": true,
                "userdeleteddate": null,
                "senttimestamp": "2023-03-30T19:45:15",
                "eventtimestamp": "2023-03-30T19:56:25",
                "eventtype": "TM Sent",
                "campaignname": "March All Employee Susceptible Users 2nd Click - Test4",
                "autoenrollment": false,
                "campaignstartdate": "2023-03-30T15:45:13",
                "campaignenddate": "2023-04-06T15:45:15",
                "campaigntype": "Drive By",
                "campaignstatus": "Sent",
                "templatename": "Amazon Transaction Alert - Simple",
                "templatesubject": "Transaction alert amazon",
                "assessmentisarchived": false,
                "usertags": null,
                "sso_id": "E08810"
            }
        }, {
            "type": "fn_attack_events_v1",
            "id": 5,
            "attributes": {
                "userfirstname": "Mark",
                "userlastname": "Persche",
                "useremailaddress": "mark.persche@pgn.com",
                "useractiveflag": true,
                "userdeleteddate": null,
                "senttimestamp": "2023-03-29T18:00:11",
                "eventtimestamp": "2023-03-30T16:40:19",
                "eventtype": "Email View",
                "campaignname": "March All Employee Susceptible Users 1st Click",
                "autoenrollment": false,
                "campaignstartdate": "2023-03-29T14:00:00",
                "campaignenddate": "2023-04-03T14:00:13",
                "campaigntype": "Drive By",
                "campaignstatus": "Sent",
                "templatename": "Galaxus Parcel",
                "templatesubject": "Your package is on its way to you #90249333",
                "assessmentisarchived": false,
                "usertags": null,
                "sso_id": "E09619"
            }
        }, {
            "type": "fn_attack_events_v1",
            "id": 6,
            "attributes": {
                "userfirstname": "Chris",
                "userlastname": "Watts",
                "useremailaddress": "christopher.watts@pgn.com",
                "useractiveflag": true,
                "userdeleteddate": null,
                "senttimestamp": "2023-03-29T18:00:11",
                "eventtimestamp": "2023-03-30T02:52:44",
                "eventtype": "Email View",
                "campaignname": "March All Employee Susceptible Users 1st Click",
                "autoenrollment": false,
                "campaignstartdate": "2023-03-29T14:00:00",
                "campaignenddate": "2023-04-03T14:00:13",
                "campaigntype": "Drive By",
                "campaignstatus": "Sent",
                "templatename": "Galaxus Parcel",
                "templatesubject": "Your package is on its way to you #90249333",
                "assessmentisarchived": false,
                "usertags": null,
                "sso_id": "E09490"
            }
        }, {
            "type": "fn_attack_events_v1",
            "id": 7,
            "attributes": {
                "userfirstname": "Chris",
                "userlastname": "Watts",
                "useremailaddress": "christopher.watts@pgn.com",
                "useractiveflag": true,
                "userdeleteddate": null,
                "senttimestamp": "2023-03-29T18:00:11",
                "eventtimestamp": "2023-03-30T02:52:13",
                "eventtype": "Email View",
                "campaignname": "March All Employee Susceptible Users 1st Click",
                "autoenrollment": false,
                "campaignstartdate": "2023-03-29T14:00:00",
                "campaignenddate": "2023-04-03T14:00:13",
                "campaigntype": "Drive By",
                "campaignstatus": "Sent",
                "templatename": "Galaxus Parcel",
                "templatesubject": "Your package is on its way to you #90249333",
                "assessmentisarchived": false,
                "usertags": null,
                "sso_id": "E09490"
            }
        }, {
            "type": "fn_attack_events_v1",
            "id": 8,
            "attributes": {
                "userfirstname": "Joel",
                "userlastname": "Maynard",
                "useremailaddress": "joel.maynard@pgn.com",
                "useractiveflag": true,
                "userdeleteddate": null,
                "senttimestamp": "2023-03-29T18:00:13",
                "eventtimestamp": "2023-03-30T01:45:53",
                "eventtype": "Email View",
                "campaignname": "March All Employee Susceptible Users 1st Click",
                "autoenrollment": false,
                "campaignstartdate": "2023-03-29T14:00:00",
                "campaignenddate": "2023-04-03T14:00:13",
                "campaigntype": "Drive By",
                "campaignstatus": "Sent",
                "templatename": "Galaxus Parcel",
                "templatesubject": "Your package is on its way to you #90249333",
                "assessmentisarchived": false,
                "usertags": null,
                "sso_id": "E79134"
            }
        }, {
            "type": "fn_attack_events_v1",
            "id": 9,
            "attributes": {
                "userfirstname": "Darren",
                "userlastname": "Dikeman",
                "useremailaddress": "darren.dikeman@pgn.com",
                "useractiveflag": true,
                "userdeleteddate": null,
                "senttimestamp": "2023-03-29T18:00:12",
                "eventtimestamp": "2023-03-29T22:08:33",
                "eventtype": "Email View",
                "campaignname": "March All Employee Susceptible Users 1st Click",
                "autoenrollment": false,
                "campaignstartdate": "2023-03-29T14:00:00",
                "campaignenddate": "2023-04-03T14:00:13",
                "campaigntype": "Drive By",
                "campaignstatus": "Sent",
                "templatename": "Galaxus Parcel",
                "templatesubject": "Your package is on its way to you #90249333",
                "assessmentisarchived": false,
                "usertags": null,
                "sso_id": "E17150"
            }
        }, {
            "type": "fn_attack_events_v1",
            "id": 10,
            "attributes": {
                "userfirstname": "Darren",
                "userlastname": "Dikeman",
                "useremailaddress": "darren.dikeman@pgn.com",
                "useractiveflag": true,
                "userdeleteddate": null,
                "senttimestamp": "2023-03-29T18:00:12",
                "eventtimestamp": "2023-03-29T22:08:33",
                "eventtype": "Email View",
                "campaignname": "March All Employee Susceptible Users 1st Click",
                "autoenrollment": false,
                "campaignstartdate": "2023-03-29T14:00:00",
                "campaignenddate": "2023-04-03T14:00:13",
                "campaigntype": "Drive By",
                "campaignstatus": "Sent",
                "templatename": "Galaxus Parcel",
                "templatesubject": "Your package is on its way to you #90249333",
                "assessmentisarchived": false,
                "usertags": null,
                "sso_id": "E17150"
            }
        }, {
            "type": "fn_attack_events_v1",
            "id": 11,
            "attributes": {
                "userfirstname": "Donald",
                "userlastname": "Eri",
                "useremailaddress": "donald.eri.jr@pgn.com",
                "useractiveflag": true,
                "userdeleteddate": null,
                "senttimestamp": "2023-03-29T18:00:12",
                "eventtimestamp": "2023-03-29T22:04:49",
                "eventtype": "Email View",
                "campaignname": "March All Employee Susceptible Users 1st Click",
                "autoenrollment": false,
                "campaignstartdate": "2023-03-29T14:00:00",
                "campaignenddate": "2023-04-03T14:00:13",
                "campaigntype": "Drive By",
                "campaignstatus": "Sent",
                "templatename": "Galaxus Parcel",
                "templatesubject": "Your package is on its way to you #90249333",
                "assessmentisarchived": false,
                "usertags": null,
                "sso_id": "E20083"
            }
        }, {
            "type": "fn_attack_events_v1",
            "id": 12,
            "attributes": {
                "userfirstname": "Donald",
                "userlastname": "Eri",
                "useremailaddress": "donald.eri.jr@pgn.com",
                "useractiveflag": true,
                "userdeleteddate": null,
                "senttimestamp": "2023-03-29T18:00:12",
                "eventtimestamp": "2023-03-29T22:04:40",
                "eventtype": "Email View",
                "campaignname": "March All Employee Susceptible Users 1st Click",
                "autoenrollment": false,
                "campaignstartdate": "2023-03-29T14:00:00",
                "campaignenddate": "2023-04-03T14:00:13",
                "campaigntype": "Drive By",
                "campaignstatus": "Sent",
                "templatename": "Galaxus Parcel",
                "templatesubject": "Your package is on its way to you #90249333",
                "assessmentisarchived": false,
                "usertags": null,
                "sso_id": "E20083"
            }
        }, {
            "type": "fn_attack_events_v1",
            "id": 13,
            "attributes": {
                "userfirstname": "Steven",
                "userlastname": "Schiefelbein",
                "useremailaddress": "steve.schiefelbein@pgn.com",
                "useractiveflag": true,
                "userdeleteddate": null,
                "senttimestamp": "2023-03-29T18:00:12",
                "eventtimestamp": "2023-03-29T21:44:07",
                "eventtype": "Email View",
                "campaignname": "March All Employee Susceptible Users 1st Click",
                "autoenrollment": false,
                "campaignstartdate": "2023-03-29T14:00:00",
                "campaignenddate": "2023-04-03T14:00:13",
                "campaigntype": "Drive By",
                "campaignstatus": "Sent",
                "templatename": "Galaxus Parcel",
                "templatesubject": "Your package is on its way to you #90249333",
                "assessmentisarchived": false,
                "usertags": null,
                "sso_id": "E03469"
            }
        }, {
            "type": "fn_attack_events_v1",
            "id": 14,
            "attributes": {
                "userfirstname": "Steven",
                "userlastname": "Schiefelbein",
                "useremailaddress": "steve.schiefelbein@pgn.com",
                "useractiveflag": true,
                "userdeleteddate": null,
                "senttimestamp": "2023-03-29T18:00:12",
                "eventtimestamp": "2023-03-29T21:44:07",
                "eventtype": "Email View",
                "campaignname": "March All Employee Susceptible Users 1st Click",
                "autoenrollment": false,
                "campaignstartdate": "2023-03-29T14:00:00",
                "campaignenddate": "2023-04-03T14:00:13",
                "campaigntype": "Drive By",
                "campaignstatus": "Sent",
                "templatename": "Galaxus Parcel",
                "templatesubject": "Your package is on its way to you #90249333",
                "assessmentisarchived": false,
                "usertags": null,
                "sso_id": "E03469"
            }
        }, {
            "type": "fn_attack_events_v1",
            "id": 15,
            "attributes": {
                "userfirstname": "Terry",
                "userlastname": "Randall",
                "useremailaddress": "terry.randall@pgn.com",
                "useractiveflag": true,
                "userdeleteddate": null,
                "senttimestamp": "2023-03-29T18:00:12",
                "eventtimestamp": "2023-03-29T20:29:30",
                "eventtype": "Email View",
                "campaignname": "March All Employee Susceptible Users 1st Click",
                "autoenrollment": false,
                "campaignstartdate": "2023-03-29T14:00:00",
                "campaignenddate": "2023-04-03T14:00:13",
                "campaigntype": "Drive By",
                "campaignstatus": "Sent",
                "templatename": "Galaxus Parcel",
                "templatesubject": "Your package is on its way to you #90249333",
                "assessmentisarchived": false,
                "usertags": null,
                "sso_id": "E53952"
            }
        }, {
            "type": "fn_attack_events_v1",
            "id": 16,
            "attributes": {
                "userfirstname": "Terry",
                "userlastname": "Randall",
                "useremailaddress": "terry.randall@pgn.com",
                "useractiveflag": true,
                "userdeleteddate": null,
                "senttimestamp": "2023-03-29T18:00:12",
                "eventtimestamp": "2023-03-29T20:29:30",
                "eventtype": "Email View",
                "campaignname": "March All Employee Susceptible Users 1st Click",
                "autoenrollment": false,
                "campaignstartdate": "2023-03-29T14:00:00",
                "campaignenddate": "2023-04-03T14:00:13",
                "campaigntype": "Drive By",
                "campaignstatus": "Sent",
                "templatename": "Galaxus Parcel",
                "templatesubject": "Your package is on its way to you #90249333",
                "assessmentisarchived": false,
                "usertags": null,
                "sso_id": "E53952"
            }
        }, {
            "type": "fn_attack_events_v1",
            "id": 17,
            "attributes": {
                "userfirstname": "Ganga",
                "userlastname": "Chintalapati",
                "useremailaddress": "ganga.chintalapati@pgn.com",
                "useractiveflag": true,
                "userdeleteddate": null,
                "senttimestamp": "2023-03-29T18:00:12",
                "eventtimestamp": "2023-03-29T20:04:15",
                "eventtype": "Email View",
                "campaignname": "March All Employee Susceptible Users 1st Click",
                "autoenrollment": false,
                "campaignstartdate": "2023-03-29T14:00:00",
                "campaignenddate": "2023-04-03T14:00:13",
                "campaigntype": "Drive By",
                "campaignstatus": "Sent",
                "templatename": "Galaxus Parcel",
                "templatesubject": "Your package is on its way to you #90249333",
                "assessmentisarchived": false,
                "usertags": null,
                "sso_id": "E04194"
            }
        }, {
            "type": "fn_attack_events_v1",
            "id": 18,
            "attributes": {
                "userfirstname": "Ganga",
                "userlastname": "Chintalapati",
                "useremailaddress": "ganga.chintalapati@pgn.com",
                "useractiveflag": true,
                "userdeleteddate": null,
                "senttimestamp": "2023-03-29T18:00:12",
                "eventtimestamp": "2023-03-29T20:04:15",
                "eventtype": "Email View",
                "campaignname": "March All Employee Susceptible Users 1st Click",
                "autoenrollment": false,
                "campaignstartdate": "2023-03-29T14:00:00",
                "campaignenddate": "2023-04-03T14:00:13",
                "campaigntype": "Drive By",
                "campaignstatus": "Sent",
                "templatename": "Galaxus Parcel",
                "templatesubject": "Your package is on its way to you #90249333",
                "assessmentisarchived": false,
                "usertags": null,
                "sso_id": "E04194"
            }
        }, {
            "type": "fn_attack_events_v1",
            "id": 19,
            "attributes": {
                "userfirstname": "Caleb",
                "userlastname": "Giles",
                "useremailaddress": "caleb.giles@pgn.com",
                "useractiveflag": true,
                "userdeleteddate": null,
                "senttimestamp": "2023-03-29T18:00:13",
                "eventtimestamp": "2023-03-29T19:57:19",
                "eventtype": "Email View",
                "campaignname": "March All Employee Susceptible Users 1st Click",
                "autoenrollment": false,
                "campaignstartdate": "2023-03-29T14:00:00",
                "campaignenddate": "2023-04-03T14:00:13",
                "campaigntype": "Drive By",
                "campaignstatus": "Sent",
                "templatename": "Galaxus Parcel",
                "templatesubject": "Your package is on its way to you #90249333",
                "assessmentisarchived": false,
                "usertags": null,
                "sso_id": "E77722"
            }
        }, {
            "type": "fn_attack_events_v1",
            "id": 20,
            "attributes": {
                "userfirstname": "Caleb",
                "userlastname": "Giles",
                "useremailaddress": "caleb.giles@pgn.com",
                "useractiveflag": true,
                "userdeleteddate": null,
                "senttimestamp": "2023-03-29T18:00:13",
                "eventtimestamp": "2023-03-29T19:56:11",
                "eventtype": "Email View",
                "campaignname": "March All Employee Susceptible Users 1st Click",
                "autoenrollment": false,
                "campaignstartdate": "2023-03-29T14:00:00",
                "campaignenddate": "2023-04-03T14:00:13",
                "campaigntype": "Drive By",
                "campaignstatus": "Sent",
                "templatename": "Galaxus Parcel",
                "templatesubject": "Your package is on its way to you #90249333",
                "assessmentisarchived": false,
                "usertags": null,
                "sso_id": "E77722"
            }
        }
    ],
    "links": {
        "self": "/api/reporting/v0.1.0/phishing",
        "first": "/api/reporting/v0.1.0/phishing",
        "last": "/api/reporting/v0.1.0/phishing?page%5Bnumber%5D=3503",
        "next": "/api/reporting/v0.1.0/phishing?page%5Bnumber%5D=2"
    },
    "meta": {
        "page_number": 1,
        "page_size": 20,
        "count": 70049
    },
    "jsonapi": {
        "version": "1.0"
    }
}
